11 Getting started with dplyr and piping | Introduction to the principles of data wrangling and visualisation in R
…
ttwa=='Bradford'

##  [1] FALSE FALSE FALSE  TRUE  TRUE  TRUE  TRUE FALSE FALSE FALSE

… and then use that to keep the TRUE values. This is worth repeating, as once that’s clear, you can produce any kind of boolean vector you like to filter the data. More on this shortly.

So: filter picked out one particular year. But what if we want average price for each year?

Verb 3: group_by. This will group the data by the category or categories we give it. The next function will then apply to each group. You’ll get one row per group with the mean in:

sales %>% 
  group_by(year) %>% 
  summarise(mean(price))

## # A tibble: 24 x 2
##     year `mean(price)`
##    <dbl>         <dbl>
##  1  1995        79425.
##  2  1996        84693.
##  3  1997        94675.
##  4  1998       104499.
##  5  1999       120137.
##  6  2000       137448.
##  7  2001       151563.
##  8  2002       173274.
##  9  2003       188621.
## 10  2004       212300.
## # ... with 14 more rows
…
